Estimate Diagnostic Classification Models with Stan • measr
…
        Toggle navigation

        measr
        0.0.0.9000

  Reference

Overview

Lorem ipsum dolor sit amet, consectetur adipiscing elit. Sed nec nunc urna. Class aptent taciti sociosqu ad litora torquent per conubia nostra, per inceptos himenaeos. Duis placerat sapien at leo commodo, sit amet semper libero elementum. Etiam sollicitudin facilisis urna eget semper. Etiam tempor metus felis, vitae eleifend ipsum tempus cursus. Pellentesque lobortis pulvinar suscipit. Quisque vel dui sapien. Nulla ornare suscipit luctus. Pellentesque habitant morbi tristique senectus et netus et malesuada fames ac turpis egestas.

library(measr)

ecpe_qmatrix
#> # A tibble: 28 × 4
#>    item_id skill1 skill2 skill3
#>    <chr>    <int>  <int>  <int>
#>  1 E1           1      1      0
#>  2 E2           0      1      0
#>  3 E3           1      0      1
#>  4 E4           0      0      1
#>  5 E5           0      0      1
#>  6 E6           0      0      1
#>  7 E7           1      0      1
#>  8 E8           0      1      0
#>  9 E9           0      0      1
#> 10 E10          1      0      0
#> # … with 18 more rows
…
