Examination for the Certificate of Proficiency in English • measr
…
Explore the Data

The ECPE data is built into measr and can be accessed by loading the
package. A complete description of the data can be viewed using
?ecpe_data.

library(dcmdata)

ecpe_data
#> # A tibble: 2,922 × 29
#>    resp_id    E1    E2    E3    E4    E5    E6    E7    E8    E9   E10
#>      <int> <int> <int> <int> <int> <int> <int> <int> <int> <int> <int>
#>  1       1     1     1     1     0     1     1     1     1     1     1
#>  2       2     1     1     1     1     1     1     1     1     1     1
#>  3       3     1     1     1     1     1     1     0     1     1     1
#>  4       4     1     1     1     1     1     1     1     1     1     1
#>  5       5     1     1     1     1     1     1     1     1     1     1
#>  6       6     1     1     1     1     1     1     1     1     1     1
#>  7       7     1     1     1     1     1     1     1     1     1     1
#>  8       8     0     1     1     1     1     1     0     1     1     1
#>  9       9     1     1     1     1     1     1     1     1     1     1
#> 10      10     1     1     1     1     0     0     1     1     1     1
#> # ℹ 2,912 more rows
#> # ℹ 18 more variables: E11 <int>, E12 <int>, E13 <int>, E14 <int>,
#> #   E15 <int>, E16 <int>, E17 <int>, E18 <int>, E19 <int>, E20 <int>,
#> #   E21 <int>, E22 <int>, E23 <int>, E24 <int>, E25 <int>, E26 <int>,
#> #   E27 <int>, E28 <int>
…
In addition to the data, we also have a Q-matrix that define which
attributes are measured by each item. The Q-matrix has 28 rows, which
corresponds to the total number of items. The first column of the
Q-matrix contains item identifiers, which are the same as the column
names in ecpe_data that contain item responses. The
remaining columns define the attributes measured by the ECPE. A value of
0 indicates that the item does not measure that attribute, whereas a
value of 1 indicates that the attribute is measured by that item. For
example, item E1 measures both morphosyntactic rules and cohesive rules,
and item E4 measures only lexical rules.

ecpe_qmatrix
#> # A tibble: 28 × 4
#>    item_id morphosyntactic cohesive lexical
#>    <chr>             <int>    <int>   <int>
#>  1 E1                    1        1       0
#>  2 E2                    0        1       0
#>  3 E3                    1        0       1
#>  4 E4                    0        0       1
#>  5 E5                    0        0       1
#>  6 E6                    0        0       1
#>  7 E7                    1        0       1
#>  8 E8                    0        1       0
#>  9 E9                    0        0       1
#> 10 E10                   1        0       0
#> # ℹ 18 more rows

For a quick summary of the data, we can calculate the proportion of
respondents that answered each question correctly (i.e., the item
p-values).

library(tidyverse)

ecpe_data |>
  summarize(across(-resp_id, mean)) |>
  pivot_longer(everything(), names_to = "item_id", values_to = "pvalue")
#> # A tibble: 28 × 2
#>    item_id pvalue
#>    <chr>    <dbl>
#>  1 E1       0.803
#>  2 E2       0.830
#>  3 E3       0.579
#>  4 E4       0.706
#>  5 E5       0.887
#>  6 E6       0.854
#>  7 E7       0.721
#>  8 E8       0.898
#>  9 E9       0.702
#> 10 E10      0.658
#> # ℹ 18 more rows
…
A main effect for morphosyntactic rules, which represents the
increase in the log-odds of providing a correct response for a
respondent who is proficient in that attribute.

A main effect for cohesive rules, which represents the increase in
the log-odds of providing a correct response for a respondent who is
proficient in that attribute.

An interaction between morphosyntactic and cohesive rules, which is
the change in the log-odds for a respondent who is proficient in both
attributes.

item_parameters <- measr_extract(ecpe_lcdm, what = "item_param")
item_parameters
#> # A tibble: 74 × 5
#>    item_id type        attributes               coefficient       estimate
#>    <chr>   <chr>       <chr>                    <chr>           <rvar[1d]>
#>  1 E1      intercept   NA                       l1_0          0.81 ± 0.077
#>  2 E1      maineffect  morphosyntactic          l1_11         0.66 ± 0.409
#>  3 E1      maineffect  cohesive                 l1_12         0.65 ± 0.221
#>  4 E1      interaction morphosyntactic__cohesi… l1_212        0.47 ± 0.528
#>  5 E2      intercept   NA                       l2_0          1.04 ± 0.080
#>  6 E2      maineffect  cohesive                 l2_12         1.23 ± 0.155
#>  7 E3      intercept   NA                       l3_0         -0.35 ± 0.075
#>  8 E3      maineffect  morphosyntactic          l3_11         0.74 ± 0.381
#>  9 E3      maineffect  lexical                  l3_13         0.36 ± 0.116
#> 10 E3      interaction morphosyntactic__lexical l3_213        0.53 ± 0.398
#> # ℹ 64 more rows
…
Respondent Proficiency

The final piece of output from our model we will examine is the
respondent probabilities. There are two types of probabilities that we
can calculate, both of which are returned by the score()
function.

resp_probs <- score(ecpe_lcdm)
resp_probs
#> $class_probabilities
#> # A tibble: 23,376 × 5
#>    resp_id class   probability       `2.5%`    `97.5%`
#>    <chr>   <chr>         <dbl>        <dbl>      <dbl>
#>  1 1       [0,0,0] 0.00000766  0.00000379   0.0000135 
#>  2 1       [1,0,0] 0.0000999   0.00000723   0.000300  
#>  3 1       [0,1,0] 0.000000525 0.0000000308 0.00000146
#>  4 1       [0,0,1] 0.00131     0.000735     0.00209   
#>  5 1       [1,1,0] 0.0000895   0.00000767   0.000271  
#>  6 1       [1,0,1] 0.0424      0.00346      0.102     
#>  7 1       [0,1,1] 0.00207     0.00129      0.00310   
#>  8 1       [1,1,1] 0.954       0.894        0.993     
#>  9 2       [0,0,0] 0.00000584  0.00000277   0.0000108 
#> 10 2       [1,0,0] 0.0000763   0.00000575   0.000243  
#> # ℹ 23,366 more rows
#> 
#> $attribute_probabilities
#> # A tibble: 8,766 × 5
#>    resp_id attribute       probability `2.5%` `97.5%`
#>    <chr>   <chr>                 <dbl>  <dbl>   <dbl>
#>  1 1       morphosyntactic       0.997  0.995   0.998
#>  2 1       cohesive              0.956  0.896   0.995
#>  3 1       lexical               1.00   1.00    1.00 
#>  4 2       morphosyntactic       0.995  0.992   0.997
#>  5 2       cohesive              0.902  0.776   0.987
#>  6 2       lexical               1.00   1.00    1.00 
#>  7 3       morphosyntactic       0.983  0.971   0.991
#>  8 3       cohesive              0.988  0.974   0.997
#>  9 3       lexical               1.00   1.00    1.00 
#> 10 4       morphosyntactic       0.998  0.996   0.998
#> # ℹ 8,756 more rows
…
score(ecpe_lcdm, summary = FALSE)
#> $class_probabilities
#> # A tibble: 2,922 × 9
#>    resp_id          `[0,0,0]`              `[1,0,0]`          `[0,1,0]`
#>    <chr>           <rvar[1d]>             <rvar[1d]>         <rvar[1d]>
#>  1 1        7.7e-06 ± 2.5e-06  0.0000999 ± 0.0000798  5.2e-07 ± 3.8e-07
#>  2 2        5.8e-06 ± 2.0e-06  0.0000763 ± 0.0000622  2.1e-07 ± 1.8e-07
#>  3 3        5.6e-06 ± 2.1e-06  0.0000168 ± 0.0000172  1.8e-06 ± 1.3e-06
#>  4 4        3.2e-07 ± 1.1e-07  0.0000041 ± 0.0000032  1.0e-07 ± 7.2e-08
#>  5 5        1.2e-03 ± 3.7e-04  0.0086487 ± 0.0063399  3.7e-04 ± 2.6e-04
#>  6 6        3.0e-06 ± 1.0e-06  0.0000158 ± 0.0000148  9.3e-07 ± 6.7e-07
#>  7 7        3.0e-06 ± 1.0e-06  0.0000158 ± 0.0000148  9.3e-07 ± 6.7e-07
#>  8 8        3.8e-02 ± 1.2e-02  0.0000862 ± 0.0001018  1.4e-03 ± 1.1e-03
#>  9 9        6.5e-05 ± 1.9e-05  0.0002082 ± 0.0001485  2.1e-05 ± 1.4e-05
#> 10 10       4.1e-01 ± 1.4e-01  0.4156164 ± 0.1798912  3.7e-03 ± 3.0e-03
#> # ℹ 2,912 more rows
#> # ℹ 5 more variables: `[0,0,1]` <rvar[1d]>, `[1,1,0]` <rvar[1d]>,
#> #   `[1,0,1]` <rvar[1d]>, `[0,1,1]` <rvar[1d]>, `[1,1,1]` <rvar[1d]>
#> 
#> $attribute_probabilities
#> # A tibble: 2,922 × 4
#>    resp_id   morphosyntactic       cohesive          lexical
#>    <chr>          <rvar[1d]>     <rvar[1d]>       <rvar[1d]>
#>  1 1        0.9966 ± 0.00067  0.96 ± 0.0251  1.00 ± 0.000116
#>  2 2        0.9950 ± 0.00133  0.90 ± 0.0558  1.00 ± 0.000074
#>  3 3        0.9827 ± 0.00522  0.99 ± 0.0058  1.00 ± 0.000079
#>  4 4        0.9976 ± 0.00051  0.99 ± 0.0057  1.00 ± 0.000014
#>  5 5        0.9880 ± 0.00235  0.98 ± 0.0086  0.95 ± 0.025971
#>  6 6        0.9924 ± 0.00211  0.99 ± 0.0058  1.00 ± 0.000068
#>  7 7        0.9924 ± 0.00211  0.99 ± 0.0058  1.00 ± 0.000068
#>  8 8        0.0044 ± 0.00193  0.44 ± 0.0818  0.96 ± 0.011942
#>  9 9        0.9452 ± 0.01210  0.98 ± 0.0061  1.00 ± 0.000766
#> 10 10       0.5448 ± 0.15235  0.12 ± 0.0621  0.11 ± 0.049288
#> # ℹ 2,912 more rows
…
