Evaluating diagnostic classification models • measr
…
We can also specify the posterior quantiles that are returned. For
example, we can calculate the item-level odds ratios and request
quantiles that will result in a 90% credible interval.

fit_ppmc(lcdm, model_fit = NULL, item_fit = "odds_ratio",
         probs = c(0.05, 0.95))
#> $ppmc_odds_ratio
#> # A tibble: 190 × 7
#>    item_1 item_2 obs_or ppmc_mean  `5%` `95%`   ppp
#>    <chr>  <chr>   <dbl>     <dbl> <dbl> <dbl> <dbl>
#>  1 A1     A2      2.61       2.76 2.22   3.37 0.644
#>  2 A1     A3      2.04       1.96 1.60   2.37 0.344
#>  3 A1     A4      0.904      1.06 0.870  1.28 0.910
#>  4 A1     A5      1.99       2.10 1.69   2.57 0.628
#>  5 A1     A6      3.27       3.24 2.57   4.03 0.428
#>  6 A1     A7      0.966      1.05 0.864  1.25 0.747
#>  7 A1     A8      6.78       6.56 5.06   8.38 0.376
#>  8 A1     A9     10.1        9.76 7.56  12.4  0.359
#>  9 A1     A10     2.98       2.85 2.21   3.68 0.352
#> 10 A1     A11     2.98       3.06 2.50   3.71 0.550
#> # ℹ 180 more rows
…
