Estimating diagnostic classification models • measr
…
To demonstrate the model estimation functionality of measr, we’ll
examine a simulated data set. This data set contains 2,000 respondents
and 20 items that measure a total of 4 attributes, but no item measures
more than 2 attributes. The data was generated from the loglinear
cognitive diagnostic model (LCDM), which is a general model that
subsumes many other DCM subtypes (Henson et al., 2009). By using a simulated
data set, we can compare the parameter estimates from measr to the true
data generating parameters.

library(tidyverse)

sim_data <- read_rds("data/simulated-data.rds")

sim_data$data
#> # A tibble: 2,000 × 21
#>    resp_id    A1    A2    A3    A4    A5    A6    A7    A8    A9   A10
#>      <int> <int> <int> <int> <int> <int> <int> <int> <int> <int> <int>
#>  1       1     1     1     0     1     0     0     0     0     1     0
#>  2       2     1     1     1     0     0     1     0     1     1     0
#>  3       3     1     1     1     1     1     0     1     1     0     1
#>  4       4     1     0     1     0     0     1     0     1     1     0
#>  5       5     1     1     0     0     0     0     0     1     1     0
#>  6       6     1     1     1     0     1     0     0     1     1     0
#>  7       7     1     0     1     0     0     1     0     1     1     0
#>  8       8     0     1     1     0     0     1     0     1     1     0
#>  9       9     1     1     1     0     0     1     1     1     1     0
#> 10      10     1     1     1     0     1     1     0     1     1     1
#> # ℹ 1,990 more rows
#> # ℹ 10 more variables: A11 <int>, A12 <int>, A13 <int>, A14 <int>,
#> #   A15 <int>, A16 <int>, A17 <int>, A18 <int>, A19 <int>, A20 <int>
…
A main effect for the second attribute, which represents the
increase in the log-odds of providing a correct response for a
respondent who is proficient in that attribute.

A main effect for the fourth attribute, which represents the
increase in the log-odds of providing a correct response for a
respondent who is proficient in that attribute.

An interaction between the second and fourth attributes, which is
the change in the log-odds for a respondent who is proficient in both
attributes.

item_parameters <- measr_extract(lcdm, what = "item_param")
item_parameters
#> # A tibble: 66 × 5
#>    item_id type        attributes coefficient       estimate
#>    <chr>   <chr>       <chr>      <chr>           <rvar[1d]>
#>  1 A1      intercept   NA         l1_0         -0.98 ± 0.099
#>  2 A1      maineffect  att2       l1_12         2.46 ± 0.154
#>  3 A1      maineffect  att4       l1_14         4.46 ± 0.313
#>  4 A1      interaction att2__att4 l1_224        0.16 ± 1.303
#>  5 A2      intercept   NA         l2_0         -2.41 ± 0.294
#>  6 A2      maineffect  att3       l2_13         4.00 ± 0.323
#>  7 A2      maineffect  att4       l2_14         3.82 ± 0.334
#>  8 A2      interaction att3__att4 l2_234       -3.59 ± 0.376
#>  9 A3      intercept   NA         l3_0         -2.01 ± 0.159
#> 10 A3      maineffect  att1       l3_11         2.22 ± 0.189
#> # ℹ 56 more rows
…
c(prior(chi_square(2), type = "maineffect"),
  prior(exponential(2), type = "maineffect", coefficient = "l7_11"))
#> # A tibble: 2 × 3
#>   type       coefficient prior         
#>   <chr>      <chr>       <chr>         
#> 1 maineffect NA          chi_square(2) 
#> 2 maineffect l7_11       exponential(2)

get_parameters(model_spec)
#> # A tibble: 67 × 4
#>    item_id type        attributes coefficient
#>    <chr>   <chr>       <chr>      <chr>      
#>  1 A1      intercept   NA         l1_0       
#>  2 A1      maineffect  att2       l1_12      
#>  3 A1      maineffect  att4       l1_14      
#>  4 A1      interaction att2__att4 l1_224     
#>  5 A2      intercept   NA         l2_0       
#>  6 A2      maineffect  att3       l2_13      
#>  7 A2      maineffect  att4       l2_14      
#>  8 A2      interaction att3__att4 l2_234     
#>  9 A3      intercept   NA         l3_0       
#> 10 A3      maineffect  att1       l3_11      
#> # ℹ 57 more rows
…
