…
bf <- bayes_factor(mdm_dina, mdm_dino)
bf
#> # A tibble: 1 × 4
#>   null_model alt_model    bf posterior_probs  
#>   <chr>      <chr>     <dbl> <list>           
#> 1 mdm_dina   mdm_dino  0.972 <tibble [49 × 2]>

tidyr::unnest(bf, "posterior_probs")
#> # A tibble: 49 × 5
#>    null_model alt_model    bf prior_prob_null posterior_prob_null
#>    <chr>      <chr>     <dbl>           <dbl>               <dbl>
#>  1 mdm_dina   mdm_dino  0.972            0.02              0.0212
#>  2 mdm_dina   mdm_dino  0.972            0.04              0.0424
#>  3 mdm_dina   mdm_dino  0.972            0.06              0.0635
#>  4 mdm_dina   mdm_dino  0.972            0.08              0.0845
#>  5 mdm_dina   mdm_dino  0.972            0.1               0.106 
#>  6 mdm_dina   mdm_dino  0.972            0.12              0.127 
#>  7 mdm_dina   mdm_dino  0.972            0.14              0.147 
#>  8 mdm_dina   mdm_dino  0.972            0.16              0.168 
#>  9 mdm_dina   mdm_dino  0.972            0.18              0.189 
#> 10 mdm_dina   mdm_dino  0.972            0.2               0.210 
#> # ℹ 39 more rows
```
