…
## Examples

``` r
rstn_ecpe_lcdm <- dcm_estimate(
  dcm_specify(dcmdata::ecpe_qmatrix, identifier = "item_id"),
  data = dcmdata::ecpe_data, missing = NA, identifier = "resp_id",
  method = "optim", seed = 63277, backend = "rstan"
)

cdi(rstn_ecpe_lcdm)
#> $item_discrimination
#> # A tibble: 28 × 5
#>     item overall morphosyntactic cohesive lexical
#>    <int>   <dbl>           <dbl>    <dbl>   <dbl>
#>  1     1  0.0615          0.0435   0.0618  0     
#>  2     2  0.0483          0        0.1000  0     
#>  3     3  0.0917          0.136    0       0.0462
#>  4     4  0.142           0        0       0.294 
#>  5     5  0.0929          0        0       0.192 
#>  6     6  0.0845          0        0       0.175 
#>  7     7  0.189           0.277    0       0.0756
#>  8     8  0.0660          0        0.137   0     
#>  9     9  0.0720          0        0       0.149 
#> 10    10  0.191           0.397    0       0     
#> # ℹ 18 more rows
…
