Get a list of possible parameters — get_parameters • measr
…
attribute_structure
Structural model specification. Must be one of
unconstrained, or independent.
unconstrained makes no assumptions about the relationships between
attributes, whereas independent assumes that proficiency statuses on
attributes are independent of each other.

    Value

A tibble with one row per parameter.

    Examples

get_parameters(ecpe_qmatrix, item_id = "item_id", type = "lcdm")
#> # A tibble: 75 × 4
#>    item_id class       attributes                coef  
#>      <int> <chr>       <chr>                     <glue>
#>  1       1 intercept   NA                        l1_0  
#>  2       1 maineffect  morphosyntactic           l1_11 
#>  3       1 maineffect  cohesive                  l1_12 
#>  4       1 interaction morphosyntactic__cohesive l1_212
#>  5       2 intercept   NA                        l2_0  
#>  6       2 maineffect  cohesive                  l2_12 
#>  7       3 intercept   NA                        l3_0  
#>  8       3 maineffect  morphosyntactic           l3_11 
#>  9       3 maineffect  lexical                   l3_13 
#> 10       3 interaction morphosyntactic__lexical  l3_213
#> # ℹ 65 more rows

get_parameters(ecpe_qmatrix, item_id = "item_id", type = "lcdm",
               rename_att = TRUE)
#> # A tibble: 75 × 4
#>    item_id class       attributes coef  
#>      <int> <chr>       <chr>      <glue>
#>  1       1 intercept   NA         l1_0  
#>  2       1 maineffect  att1       l1_11 
#>  3       1 maineffect  att2       l1_12 
#>  4       1 interaction att1__att2 l1_212
#>  5       2 intercept   NA         l2_0  
#>  6       2 maineffect  att2       l2_12 
#>  7       3 intercept   NA         l3_0  
#>  8       3 maineffect  att1       l3_11 
#>  9       3 maineffect  att3       l3_13 
#> 10       3 interaction att1__att3 l3_213
#> # ℹ 65 more rows
…
