Estimating diagnostic classification models • measr
…
The ECPE data is included within the measr package. For additional
information on these data, see ?ecpe_data.

ecpe_data
#> # A tibble: 2,922 × 29
#>    resp_id    E1    E2    E3    E4    E5    E6    E7    E8    E9   E10   E11
#>      <int> <int> <int> <int> <int> <int> <int> <int> <int> <int> <int> <int>
#>  1       1     1     1     1     0     1     1     1     1     1     1     1
#>  2       2     1     1     1     1     1     1     1     1     1     1     1
#>  3       3     1     1     1     1     1     1     0     1     1     1     1
#>  4       4     1     1     1     1     1     1     1     1     1     1     1
#>  5       5     1     1     1     1     1     1     1     1     1     1     1
#>  6       6     1     1     1     1     1     1     1     1     1     1     1
#>  7       7     1     1     1     1     1     1     1     1     1     1     1
#>  8       8     0     1     1     1     1     1     0     1     1     1     0
#>  9       9     1     1     1     1     1     1     1     1     1     1     1
#> 10      10     1     1     1     1     0     0     1     1     1     1     1
#> # ℹ 2,912 more rows
#> # ℹ 17 more variables: E12 <int>, E13 <int>, E14 <int>, E15 <int>, E16 <int>,
#> #   E17 <int>, E18 <int>, E19 <int>, E20 <int>, E21 <int>, E22 <int>,
#> #   E23 <int>, E24 <int>, E25 <int>, E26 <int>, E27 <int>, E28 <int>

ecpe_qmatrix
#> # A tibble: 28 × 4
#>    item_id morphosyntactic cohesive lexical
#>    <chr>             <int>    <int>   <int>
#>  1 E1                    1        1       0
#>  2 E2                    0        1       0
#>  3 E3                    1        0       1
#>  4 E4                    0        0       1
#>  5 E5                    0        0       1
#>  6 E6                    0        0       1
#>  7 E7                    1        0       1
#>  8 E8                    0        1       0
#>  9 E9                    0        0       1
#> 10 E10                   1        0       0
#> # ℹ 18 more rows
…
A main effect for morphosyntactic rules, which represents the
increase in the log-odds of providing a correct response for a
respondent who is proficient in that attribute.

A main effect for cohesive rules, which represents the increase in
the log-odds of providing a correct response for a respondent who is
proficient in that attribute.

An interaction between morphosyntactic and cohesive rules, which is
the change in the log-odds for a respondent who is proficient in both
attributes.

item_parameters <- measr_extract(ecpe, what = "item_param")
item_parameters
#> # A tibble: 74 × 5
#>    item_id class       attributes                coef         estimate
#>    <fct>   <chr>       <chr>                     <glue>     <rvar[1d]>
#>  1 E1      intercept   NA                        l1_0     0.82 ± 0.075
#>  2 E1      maineffect  morphosyntactic           l1_11    0.61 ± 0.385
#>  3 E1      maineffect  cohesive                  l1_12    0.64 ± 0.207
#>  4 E1      interaction morphosyntactic__cohesive l1_212   0.54 ± 0.512
#>  5 E2      intercept   NA                        l2_0     1.04 ± 0.078
#>  6 E2      maineffect  cohesive                  l2_12    1.24 ± 0.154
#>  7 E3      intercept   NA                        l3_0    -0.35 ± 0.069
#>  8 E3      maineffect  morphosyntactic           l3_11    0.72 ± 0.366
#>  9 E3      maineffect  lexical                   l3_13    0.36 ± 0.110
#> 10 E3      interaction morphosyntactic__lexical  l3_213   0.56 ± 0.389
#> # ℹ 64 more rows
…
c(prior(chi_square(2), class = "maineffect"),
  prior(exponential(2), class = "maineffect", coef = "l7_11"))
#> # A tibble: 2 × 3
#>   class      coef  prior_def     
#>   <chr>      <chr> <chr>         
#> 1 maineffect NA    chi_square(2) 
#> 2 maineffect l7_11 exponential(2)

get_parameters(ecpe_qmatrix, item_id = "item_id", type = "lcdm")
#> # A tibble: 74 × 4
#>    item_id class       attributes                coef  
#>      <int> <chr>       <chr>                     <glue>
#>  1       1 intercept   NA                        l1_0  
#>  2       1 maineffect  morphosyntactic           l1_11 
#>  3       1 maineffect  cohesive                  l1_12 
#>  4       1 interaction morphosyntactic__cohesive l1_212
#>  5       2 intercept   NA                        l2_0  
#>  6       2 maineffect  cohesive                  l2_12 
#>  7       3 intercept   NA                        l3_0  
#>  8       3 maineffect  morphosyntactic           l3_11 
#>  9       3 maineffect  lexical                   l3_13 
#> 10       3 interaction morphosyntactic__lexical  l3_213
#> # ℹ 64 more rows
…
